<?xml version="1.0" encoding="utf-8"?>
<!-- Generator: Adobe Illustrator 25.2.1, SVG Export Plug-In . SVG Version: 6.00 Build 0)  -->
<svg version="1.1" id="Layer_1" xmlns="http://www.w3.org/2000/svg" xmlns:xlink="http://www.w3.org/1999/xlink" x="0px" y="0px"
	 viewBox="0 0 512 246.9" style="enable-background:new 0 0 512 246.9;" xml:space="preserve">
<g>
	<path d="M41.4,33.7c9,0,16.5,3.4,22.5,10.3c6,6.8,9,15.2,9,25.1v23.8c0,2.1-0.1,3.6-0.2,4.7c-0.1,1-0.6,2.2-1.3,3.6
		c-1.2,2.3-4.6,3.5-10.4,3.5c-5.5,0-8.9-1.2-10.3-3.5c-0.7-1.4-1.1-2.6-1.3-3.6c-0.1-1.1-0.2-2.7-0.2-4.9V69c0-3.7-1-6.6-3.1-8.6
		c-2.1-2.1-4.7-3.1-7.9-3.1c-3.2,0-6,1-8.4,2.9c-2.4,1.9-3.8,4.1-4.2,6.5v26.2c0,2.1-0.1,3.6-0.2,4.7c-0.1,1-0.6,2.2-1.3,3.6
		c-1.2,2.3-4.6,3.5-10.4,3.5c-5.7,0-9.1-1.2-10.4-3.6c-0.6-1.3-1-2.5-1.1-3.5c-0.1-1-0.2-2.6-0.2-4.7V12c0-2.1,0.1-3.6,0.2-4.7
		c0.1-1,0.5-2.2,1.1-3.4c1.3-2.4,4.8-3.6,10.5-3.6c5.7,0,9.1,1.2,10.3,3.6c0.7,1.3,1.1,2.5,1.3,3.6c0.1,1,0.2,2.6,0.2,4.7V42
		C30.1,36.5,35.4,33.7,41.4,33.7z"/>
	<path d="M129.8,41c0.5-5,4.1-7.6,10.7-7.6c3.5,0,6.1,0.3,7.8,0.8c1.7,0.5,2.9,1.5,3.6,2.8c0.7,1.3,1.1,2.5,1.2,3.6
		c0.1,1,0.2,2.6,0.2,4.7v47.2c0,2.1-0.1,3.6-0.2,4.7c-0.1,1-0.5,2.2-1.1,3.6c-1.3,2.3-4.3,3.5-9.2,3.5c-4.9,0-8.2-0.6-9.9-1.8
		c-1.7-1.2-2.6-3-2.9-5.3c-3.3,4.8-8.9,7.2-16.7,7.2c-7.8,0-15-3.6-21.7-10.7c-6.7-7.1-10-15.4-10-24.8c0-9.4,3.4-17.6,10.1-24.7
		c6.7-7.1,14.1-10.6,22.1-10.6c3.1,0,5.8,0.5,8.4,1.6c2.5,1.1,4.3,2.1,5.3,3C128.4,39.2,129.2,40.1,129.8,41z M105.3,69.1
		c0,3,1.2,5.6,3.5,8c2.3,2.4,5.2,3.6,8.5,3.6c3.3,0,6.1-1.2,8.3-3.6c2.2-2.4,3.3-5.1,3.3-8c0-2.9-1.1-5.6-3.2-8.2
		c-2.1-2.5-4.9-3.8-8.5-3.8c-3.6,0-6.4,1.3-8.6,3.8C106.4,63.4,105.3,66.1,105.3,69.1z"/>
	<path d="M164.1,11.9c0-2.1,0.1-3.6,0.2-4.7c0.1-1,0.5-2.2,1.1-3.6C166.7,1.2,170.2,0,176,0c5.5,0,8.9,1.2,10.3,3.6
		c0.7,1.3,1.1,2.6,1.3,3.6c0.1,1.1,0.2,2.7,0.2,4.7v62.5c0,3.2,0.3,5.3,0.8,6.1c0.5,0.9,1.7,1.3,3.6,1.3c1.8,0,3.1,0.1,3.7,0.2
		c0.6,0.1,1.4,0.5,2.3,1.1c1.8,1.2,2.7,4.4,2.7,9.6c0,5.7-0.9,9.1-2.7,10.4c-2.3,1.6-7.9,1.9-16.7,0.8c-6.9-0.9-11.4-3.2-13.5-6.9
		c-2.5-4.4-3.8-11.4-3.8-21.1V11.9z"/>
	<path d="M217.5,42.4c7.6-7,16.2-10.5,25.9-10.5s18.3,3.5,25.8,10.5c7.5,7,11.2,15.9,11.2,26.7c0,7.5-1.9,14.1-5.8,19.9
		c-3.9,5.8-8.6,10.1-14.1,12.8c-5.5,2.7-11.3,4.1-17.2,4.1c-5.9,0-11.7-1.5-17.3-4.4c-5.6-2.9-10.3-7.2-14.1-13
		c-3.8-5.7-5.7-12.2-5.7-19.4C206.2,58.3,210,49.4,217.5,42.4z M234.4,78.7c2.9,2.2,5.8,3.3,8.8,3.3c3,0,5.9-1.1,8.9-3.4
		c3-2.2,4.5-5.6,4.5-10c0-4.4-1.4-7.7-4.2-9.9c-2.8-2.2-5.8-3.2-9-3.2c-3.2,0-6.3,1.1-9,3.4c-2.8,2.2-4.2,5.6-4.2,9.9
		C230.1,73.3,231.5,76.5,234.4,78.7z"/>
	<path d="M3.5,231.2c-2.3-2.9-3.5-5.5-3.5-7.8c0-2.3,1.9-5.3,5.8-9.1c2.2-2.2,4.6-3.2,7.2-3.2c2.5,0,6,2.2,10.5,6.7
		c1.3,1.5,3.1,3,5.4,4.4c2.3,1.4,4.5,2.1,6.5,2.1c8.4,0,12.6-3.4,12.6-10.3c0-2.1-1.1-3.8-3.4-5.2c-2.3-1.4-5.2-2.4-8.6-3
		c-3.4-0.6-7.1-1.6-11.1-3c-4-1.4-7.6-3-11.1-4.9c-3.4-1.9-6.3-4.9-8.6-9c-2.3-4.1-3.4-9-3.4-14.8c0-7.9,2.9-14.8,8.8-20.7
		c5.9-5.9,13.9-8.8,24.1-8.8c5.4,0,10.3,0.7,14.8,2.1c4.5,1.4,7.5,2.8,9.2,4.3l3.4,2.6c2.8,2.6,4.2,4.8,4.2,6.6
		c0,1.8-1.1,4.3-3.2,7.4c-3.1,4.5-6.2,6.7-9.4,6.7c-1.9,0-4.2-0.9-7-2.7c-0.3-0.2-0.8-0.6-1.6-1.3c-0.8-0.7-1.5-1.3-2.1-1.8
		c-1.9-1.2-4.3-1.8-7.2-1.8c-2.9,0-5.4,0.7-7.3,2.1c-1.9,1.4-2.9,3.3-2.9,5.8c0,2.5,1.1,4.5,3.4,6c2.3,1.5,5.1,2.6,8.6,3.1
		c3.4,0.5,7.2,1.4,11.2,2.5c4,1.1,7.8,2.5,11.2,4.1c3.4,1.6,6.3,4.4,8.6,8.4c2.3,4,3.4,8.9,3.4,14.8s-1.2,11-3.5,15.5
		c-2.3,4.5-5.4,7.9-9.2,10.3c-7.3,4.8-15.1,7.2-23.3,7.2c-4.2,0-8.2-0.5-12-1.6c-3.8-1-6.8-2.3-9.2-3.8c-4.8-2.9-8.1-5.7-10-8.4
		L3.5,231.2z"/>
	<path d="M119.3,197.9l-8.8-0.5V216c0,2.4,0.4,4.2,1.1,5.3c0.8,1.1,2.2,1.6,4.3,1.6c2.1,0,3.7,0.1,4.9,0.2c1.1,0.1,2.3,0.6,3.6,1.3
		c2.1,1.2,3.1,4.2,3.1,9c0,5.7-1.3,9.1-3.8,10.4c-1.3,0.6-2.5,1-3.6,1.1c-1,0.1-2.5,0.2-4.5,0.2c-9.4,0-16.5-2.1-21.3-6.3
		c-4.9-4.2-7.3-11.4-7.3-21.5v-20c-1.7,0.3-3.6,0.4-5.5,0.4c-2,0-3.6-0.8-4.9-2.3c-1.3-1.5-2-4.1-2-7.8s0.2-6.4,0.7-8
		c0.4-1.7,1.1-2.9,1.9-3.6c1.4-1.2,3.2-1.8,5.4-1.8l4.5,0.5v-13.9c0-2.1,0.1-3.6,0.2-4.6c0.1-1,0.6-2.1,1.3-3.2
		c1.2-2.2,4.6-3.4,10.4-3.4c6.1,0,9.8,1.7,10.9,5c0.4,1.4,0.7,3.7,0.7,6.9v13.2c4-0.4,6.9-0.5,9-0.5c2,0,3.6,0.1,4.6,0.2
		c1,0.1,2.2,0.6,3.6,1.3c2.3,1.2,3.5,4.6,3.5,10.4c0,5.7-1.2,9.1-3.6,10.4c-1.3,0.6-2.5,1-3.6,1.1
		C122.9,197.8,121.4,197.9,119.3,197.9z"/>
	<path d="M170.2,244.9c-9.1,0-16.6-3.4-22.6-10.3c-6-6.9-9-15.3-9-25.2v-23.6c0-2.2,0.1-3.7,0.2-4.7c0.1-1,0.5-2.2,1.1-3.5
		c1.3-2.4,4.8-3.6,10.5-3.6c6.3,0,10,1.7,11.1,5.1c0.5,1.4,0.8,3.7,0.8,6.9v23.6c0,3.7,1.1,6.6,3.2,8.6c2.1,2.1,4.9,3.1,8.5,3.1
		c3.6,0,6.4-1.1,8.6-3.2c2.2-2.2,3.3-5,3.3-8.5v-23.9c0-2.1,0.1-3.6,0.2-4.7s0.6-2.2,1.3-3.6c1.2-2.3,4.6-3.5,10.4-3.5
		c5.7,0,9.1,1.2,10.4,3.6c0.6,1.3,1,2.5,1.1,3.6c0.1,1,0.2,2.6,0.2,4.7v47.8c0,2-0.1,3.5-0.2,4.5c-0.1,1-0.6,2.2-1.3,3.4
		c-1.3,2.3-4.8,3.5-10.4,3.5c-5.5,0-8.9-1.1-10.1-3.2c-0.9-1.5-1.3-3.4-1.3-5.5c-0.4,0.6-1.2,1.5-2.4,2.7c-1.3,1.2-2.5,2.2-3.6,3
		C177.1,243.9,173.8,244.9,170.2,244.9z"/>
	<path d="M268.1,144.4c0.7-1.3,1.9-2.2,3.6-2.8c1.7-0.5,4-0.8,6.8-0.8s5.1,0.3,6.8,0.8c1.7,0.5,2.9,1.5,3.6,2.8
		c0.7,1.3,1.1,2.5,1.2,3.6c0.1,1,0.2,2.6,0.2,4.7v80.6c0,2.1-0.1,3.6-0.2,4.7c-0.1,1-0.6,2.2-1.3,3.4c-1.3,2.4-5.2,3.6-11.4,3.6
		c-6.3,0-9.7-2.2-10.5-6.6c-3.8,4.3-9,6.5-15.8,6.5c-8.1,0-15.5-3.5-22.1-10.6c-6.7-7.1-10-15.3-10-24.7c0-9.4,3.4-17.7,10.1-24.8
		c6.7-7.1,14.1-10.7,22.1-10.7c6.7,0,11.8,2.2,15.5,6.7v-28.3c0-2.1,0.1-3.6,0.2-4.7C267,146.9,267.4,145.7,268.1,144.4z
		 M246.1,217.7c2.3,2.4,5.2,3.6,8.5,3.6c3.3,0,6.1-1.2,8.3-3.6c2.2-2.4,3.3-5.1,3.3-8c0-2.9-1.1-5.6-3.2-8.2c-2.1-2.5-5-3.8-8.6-3.8
		c-3.6,0-6.5,1.2-8.6,3.7c-2.2,2.5-3.2,5.2-3.2,8.2C242.6,212.6,243.8,215.3,246.1,217.7z"/>
	<path d="M369.6,201.1c0,5.5-1.4,9.6-4.1,12.3c-2.7,2.7-5.8,4-9.1,4h-32c0,2.5,1.5,4.6,4.5,6.3c3,1.7,5.9,2.6,8.9,2.6
		c5.2,0,9.3-0.5,12.3-1.6l1.5-0.5c2.2-1,4-1.5,5.4-1.5c2.9,0,5.4,2,7.4,6.1c1.2,2.4,1.8,4.5,1.8,6.2c0,8-9.6,12-28.7,12
		c-6.7,0-12.6-1.1-17.7-3.4c-5.2-2.3-9.2-5.3-12.1-9.1c-5.7-7.3-8.5-15.4-8.5-24.4c0-11.3,3.7-20.4,11-27.2
		c7.3-6.8,16.5-10.2,27.5-10.2c12.5,0,21.7,4.4,27.5,13.2C368.1,190.4,369.6,195.5,369.6,201.1z M341.2,205.1c3.4,0,5.1-1.4,5.1-4.3
		c0-2.1-0.8-3.7-2.4-5c-1.6-1.3-3.8-1.9-6.7-1.9c-2.9,0-5.8,1.2-8.7,3.6c-2.9,2.4-4.3,4.9-4.3,7.6H341.2z"/>
	<path d="M417.9,174c9,0,16.5,3.4,22.5,10.3c6,6.9,9,15.3,9,25.2v23.8c0,2.1-0.1,3.6-0.2,4.7c-0.1,1-0.5,2.2-1.1,3.4
		c-1.3,2.4-4.8,3.6-10.5,3.6c-6.4,0-10.1-1.7-11.1-5c-0.5-1.5-0.8-3.8-0.8-6.9v-23.8c0-3.7-1.1-6.6-3.2-8.6
		c-2.1-2.1-4.9-3.1-8.5-3.1c-3.6,0-6.4,1.1-8.6,3.2c-2.2,2.2-3.3,5-3.3,8.5v23.9c0,2.1-0.1,3.6-0.2,4.7c-0.1,1-0.6,2.2-1.3,3.4
		c-1.2,2.4-4.6,3.6-10.4,3.6c-5.7,0-9.1-1.2-10.4-3.6c-0.6-1.3-1-2.5-1.1-3.6c-0.1-1-0.2-2.6-0.2-4.7v-47.8c0-2,0.1-3.5,0.2-4.5
		c0.1-1,0.6-2.2,1.3-3.4c1.3-2.2,4.7-3.4,10.4-3.4c5.5,0,8.9,1,10.1,3.1c0.9,1.5,1.3,3.4,1.3,5.5c0.4-0.6,1.2-1.5,2.4-2.7
		c1.3-1.2,2.5-2.1,3.6-2.8C410.9,175,414.2,174,417.9,174z"/>
	<path d="M500.1,197.9l-8.8-0.5V216c0,2.4,0.4,4.2,1.1,5.3c0.8,1.1,2.2,1.6,4.3,1.6c2.1,0,3.7,0.1,4.9,0.2c1.1,0.1,2.3,0.6,3.6,1.3
		c2.1,1.2,3.1,4.2,3.1,9c0,5.7-1.3,9.1-3.8,10.4c-1.3,0.6-2.5,1-3.6,1.1c-1,0.1-2.5,0.2-4.5,0.2c-9.4,0-16.5-2.1-21.3-6.3
		c-4.9-4.2-7.3-11.4-7.3-21.5v-20c-1.7,0.3-3.6,0.4-5.5,0.4c-2,0-3.6-0.8-4.9-2.3c-1.3-1.5-2-4.1-2-7.8s0.2-6.4,0.7-8
		c0.4-1.7,1.1-2.9,1.9-3.6c1.4-1.2,3.2-1.8,5.4-1.8l4.5,0.5v-13.9c0-2.1,0.1-3.6,0.2-4.6c0.1-1,0.6-2.1,1.3-3.2
		c1.2-2.2,4.6-3.4,10.4-3.4c6.1,0,9.8,1.7,10.9,5c0.4,1.4,0.7,3.7,0.7,6.9v13.2c4-0.4,7-0.5,9-0.5c2,0,3.6,0.1,4.6,0.2
		c1,0.1,2.2,0.6,3.6,1.3c2.3,1.2,3.5,4.6,3.5,10.4c0,5.7-1.2,9.1-3.6,10.4c-1.3,0.6-2.5,1-3.6,1.1
		C503.7,197.8,502.2,197.9,500.1,197.9z"/>
</g>
</svg>
